^C:\USERS\АДМИН\SOURCE\REPOS\PROJECT5\SOURCE.CPP
/c /ZI /JMC /nologo /W3 /WX- /diagnostics:column /sdl /Od /Oy- /D _DEBUG /D _CONSOLE /D _UNICODE /D UNICODE /Gm- /EHsc /RTC1 /MDd /GS /fp:precise /permissive- /Zc:wchar_t /Zc:forScope /Zc:inline /Fo"DEBUG\\" /Fd"DEBUG\VC142.PDB" /Gd /TP /analyze- /FC C:\USERS\АДМИН\SOURCE\REPOS\PROJECT5\SOURCE.CPP
^C:\USERS\ПОЛЬЗОВАТЕЛЬ\DESKTOP\ПРОГРАМИРОВАНИЕ\РАБОТЫ\C++\PROJECT5\SOURCE.CPP
/c /ZI /JMC /nologo /W3 /WX- /diagnostics:column /sdl /Od /Oy- /D _DEBUG /D _CONSOLE /D _UNICODE /D UNICODE /Gm- /EHsc /RTC1 /MDd /GS /fp:precise /permissive- /Zc:wchar_t /Zc:forScope /Zc:inline /Fo"DEBUG\\" /Fd"DEBUG\VC142.PDB" /Gd /TP /analyze- /FC C:\USERS\ПОЛЬЗОВАТЕЛЬ\DESKTOP\ПРОГРАМИРОВАНИЕ\РАБОТЫ\C++\PROJECT5\SOURCE.CPP
^C:\USERS\ПОЛЬЗОВАТЕЛЬ\DESKTOP\ПРОГРАМИРОВАНИЕ\РАБОТЫ\C++\ЗМЕЙКА\SOURCE.CPP
/c /ZI /JMC /nologo /W3 /WX- /diagnostics:column /sdl /Od /Oy- /D _DEBUG /D _CONSOLE /D _UNICODE /D UNICODE /Gm- /EHsc /RTC1 /MDd /GS /fp:precise /permissive- /Zc:wchar_t /Zc:forScope /Zc:inline /Fo"DEBUG\\" /Fd"DEBUG\VC142.PDB" /Gd /TP /analyze- /FC C:\USERS\ПОЛЬЗОВАТЕЛЬ\DESKTOP\ПРОГРАМИРОВАНИЕ\РАБОТЫ\C++\ЗМЕЙКА\SOURCE.CPP
^C:\USERS\ПОЛЬЗОВАТЕЛЬ\DESKTOP\ПРОГРАМИРОВАНИЕ\ПРИНЯТЫЕ\ЗМЕЙКА\SOURCE.CPP
/c /ZI /JMC /nologo /W3 /WX- /diagnostics:column /sdl /Od /Oy- /D _DEBUG /D _CONSOLE /D _UNICODE /D UNICODE /Gm- /EHsc /RTC1 /MDd /GS /fp:precise /permissive- /Zc:wchar_t /Zc:forScope /Zc:inline /Fo"DEBUG\\" /Fd"DEBUG\VC142.PDB" /Gd /TP /analyze- /FC C:\USERS\ПОЛЬЗОВАТЕЛЬ\DESKTOP\ПРОГРАМИРОВАНИЕ\ПРИНЯТЫЕ\ЗМЕЙКА\SOURCE.CPP
